Data606-Presentation - DATA606 Presentation
…
summary(stats_df$HubzoneIndicator)

   Length     Class      Mode 
 11468210 character character 

stats_df %>% 
  count(ForgivenessAmount) %>% 
  print()

# A tibble: 4,750,984 × 2
   ForgivenessAmount     n
               <dbl> <int>
 1              0.01    31
 2              0.02     3
 3              0.03     1
 4              0.05     1
 5              0.24     1
 6              0.32     1
 7              0.43     1
 8              0.5      1
 9              0.58     1
10              0.65     1
# ℹ 4,750,974 more rows

#Adding Prop col
stats_df <- stats_df %>%
  mutate(ProportionForgiven= ForgivenessAmount/CurrentApprovalAmount) %>%
  filter(ForgivenessAmount < CurrentApprovalAmount) %>% 
  print()

# A tibble: 198,424 × 14
   LoanNumber ProcessingMethod BorrowerState CurrentApprovalAmount
        <dbl> <chr>            <chr>                         <dbl>
 1 9662387700 PPP              <NA>                         100000
 2 9599457704 PPP              <NA>                          87886
 3 9807757706 PPP              <NA>                          30000
 4 9726317701 PPP              <NA>                          22500
 5 9674527702 PPP              <NA>                          16968
 6 9771377707 PPP              <NA>                          15625
 7 9590127703 PPP              <NA>                          14543
 8 9673117706 PPP              <NA>                          11250
 9 9720557702 PPP              <NA>                           9818
10 5243848406 PPS              AK                           149000
# ℹ 198,414 more rows
# ℹ 10 more variables: RuralUrbanIndicator <chr>, HubzoneIndicator <chr>,
#   LMIIndicator <chr>, BusinessAge <chr>, JobsReported <dbl>,
#   BusinessType <chr>, ForgivenessAmount <dbl>, ForgivenessDate <date>,
#   ServicingLenderName <chr>, ProportionForgiven <dbl>
…
