Data606-Final Project - DATA606 Presentation
…
#There are many loans whose forgiveness values were mere pennies, which might be an error. 
summary(stats_df$ForgivenessAmount)

    Min.  1st Qu.   Median     Mean  3rd Qu.     Max.     NA's 
       0     8830    20338    71134    38797 10361644   738377 

stats_df %>% 
  count(ForgivenessAmount) %>% 
  print()

# A tibble: 3,679,898 × 2
   ForgivenessAmount     n
               <dbl> <int>
 1              0.01    16
 2              0.02     1
 3              0.05     1
 4              0.24     1
 5              0.32     1
 6              0.43     1
 7              0.5      1
 8              0.58     1
 9              0.78     1
10              0.79     1
# ℹ 3,679,888 more rows
…
Because forgiveness doesn’t always reflect the most current approval total, we’ll find the proportions of forgiveness and work from there.

#Adding Prop col
stats_df <- stats_df %>%
  mutate(ProportionForgiven= ForgivenessAmount/CurrentApprovalAmount) %>%
  filter(ForgivenessAmount < CurrentApprovalAmount) %>% 
  arrange(ProportionForgiven) %>% 
  print()

# A tibble: 181,243 × 14
   LoanNumber ProcessingMethod BorrowerState CurrentApprovalAmount
        <dbl> <fct>            <chr>                         <dbl>
 1 3717927109 PPP              CA                          690700 
 2 7204618904 PPP              WA                          637835.
 3 6200418607 PPP              FL                          294534.
 4 7868467010 PPP              NY                          227353.
 5 6216118006 PPP              FL                          207736.
 6 7114348706 PPP              GA                          201666.
 7 8577447205 PPP              MI                          176742.
 8 9440557305 PPP              IL                          154984.
 9 7578757310 PPP              TN                          271177 
10 7358767300 PPP              CA                           36502.
# ℹ 181,233 more rows
# ℹ 10 more variables: RuralUrbanIndicator <fct>, HubzoneIndicator <fct>,
#   LMIIndicator <fct>, BusinessAge <fct>, JobsReported <dbl>,
#   BusinessType <fct>, ForgivenessAmount <dbl>, ForgivenessDate <date>,
#   ServicingLenderName <chr>, ProportionForgiven <dbl>
…
The obs_stat result is 0.00179049084. Well now set up the null distribution

null_dist <- stats_df %>%
  drop_na(HubzoneIndicator) %>%
  specify(ProportionForgiven ~ HubzoneIndicator) %>%
  hypothesize(null = "independence") %>%
  generate(reps = 1000, type = "permute") %>%
  calculate(stat = "diff in means", order = c("Y", "N")) %>% 
  print()

Response: ProportionForgiven (numeric)
Explanatory: HubzoneIndicator (factor)
Null Hypothesis: independence
# A tibble: 1,000 × 2
   replicate      stat
       <int>     <dbl>
 1         1  0.00142 
 2         2  0.000592
 3         3 -0.000155
 4         4  0.000866
 5         5  0.00105 
 6         6  0.00313 
 7         7 -0.000165
 8         8 -0.00170 
 9         9 -0.000330
10        10  0.000357
# ℹ 990 more rows
…
